{
  "project_info": {
    "project_number": "637777174474",
    "project_id": "citric-cistern-319322",
    "storage_bucket": "citric-cistern-319322.appspot.com"
  },
  "client": [
    {
      "client_info": {
        "mobilesdk_app_id": "1:637777174474:android:9df93e89ba2bcc8cbb3933",
        "android_client_info": {
          "package_name": "com.examenAndroid"
        }
      },
      "oauth_client": [
        {
          "client_id": "637777174474-2vk1ioa6tl7sr0ilfutqlui18ojgp7nj.apps.googleusercontent.com",
          "client_type": 3
        }
      ],
      "api_key": [
        {
          "current_key": "AIzaSyCT1depehQL6wHQ-PV2hm8mVldxB9zdyw4"
        }
      ],
      "services": {
        "appinvite_service": {
          "other_platform_oauth_client": [
            {
              "client_id": "637777174474-2vk1ioa6tl7sr0ilfutqlui18ojgp7nj.apps.googleusercontent.com",
              "client_type": 3
            }
          ]
        }
      }
    }
  ],
  "configuration_version": "1"
}